{
    "add_repo": {
        "intro": "పరికరాలు లేదా వెబ్‌సైట్‌ల నుండి మీరు జోడించాలనుకుంటున్న రెపోల నుండి QR- కోడ్‌లను స్కాన్ చేయండి.",
        "no_internet": "ఇంటర్నెట్ లేదా? ఏమి ఇబ్బంది లేదు. <a href=\"../swap/\"> అనువర్తనాలను ఆఫ్‌లైన్‌లో పంపడం మరియు స్వీకరించడం ఎలాగో తెలుసుకోండి. </a>",
        "open_repo_link": {
            "description": "ఇ-మెయిల్, సోషల్ మీడియా లేదా ఎస్ఎంఎస్ ద్వారా రెపో లింక్ పంపినట్లయితే, దానిలోని అనువర్తనాలను తెరవడం ద్వారా ఎఫ్-డ్రాయిడ్కు ఇన్‌స్టాల్ చేసే సామర్థ్యాన్ని జోడించండి.",
            "short_summary": "రెపో లింక్‌ను తెరవండి",
            "steps": {
                "step_1": ".add_repo.open_repo_link.steps.step_1",
                "step_2": ".add_repo.open_repo_link.steps.step_2",
                "step_3": "మీకు లింక్ తెరిచినప్పుడు, 'F-Droid కి జోడించు' బటన్ నొక్కండి.",
                "step_4": "'నాకు ఎఫ్-డ్రాయిడ్' బటన్ నొక్కండి. ఎఫ్-డ్రాయిడ్ అనువర్తనం తెరవబడుతుంది.",
                "step_5": "'క్రొత్త రిపోజిటరీని జోడించు' రిపోజిటరీ చిరునామాతో చూపబడుతుంది. దీన్ని జోడించడానికి 'సరే' నొక్కండి.",
                "step_6": "మీ క్రొత్త రెపో జోడించబడుతుంది. మీ రెపోల జాబితాను చూడటానికి, 'సెట్టింగులు' తెరవండి. 'రిపోజిటరీలు' ఎంచుకోండి.",
                "step_7": "దాని కంటెంట్లను చూడటానికి రెపోపై నొక్కండి.",
                "step_8": "మీరు కలిగి ఉండాలనుకుంటున్న అనువర్తనాలను ఎంచుకోండి మరియు వాటిని మీ పరికరంలో ఇన్‌స్టాల్ చేయండి."
            },
            "title": "మీ పరికరంలో రెపో లింక్‌ను తెరవండి"
        },
        "overview": {
            "summary": "మరింత పొందడానికి, F-Droid కి రెపోని జోడించండి. రెపో అనేది క్యూరేటెడ్ కంటెంట్ యొక్క సేకరణ. వ్యక్తుల నుండి% u2019 రెపోల గురించి మీరు నేరుగా తెలుసుకోవచ్చు. డెవలపర్లు తరచుగా వారి వెబ్‌సైట్ నుండి వారి ఎఫ్-డ్రాయిడ్ రెపోకు లింక్ చేస్తారు. శిక్షకులు తరచుగా ఇమెయిల్, ఫేస్‌బుక్ లేదా ట్విట్టర్ ద్వారా రెపోలకు లింక్‌లను పంచుకుంటారు.",
            "title": "మరింత కంటెంట్ పొందండి."
        },
        "scan_qr_code": {
            "description": "పరికరాలు లేదా వెబ్‌సైట్‌ల నుండి మీరు జోడించాలనుకుంటున్న రెపోల నుండి QR- కోడ్‌లను స్కాన్ చేయండి.",
            "related_tutorial": "మీకు కూడా ఆసక్తి ఉండవచ్చు: <a href=\"../swap/\"> అనువర్తనాలను ఆఫ్‌లైన్‌లో ఎలా పంపాలి మరియు స్వీకరించాలి </a>",
            "short_summary": "QR కోడ్‌ను స్కాన్ చేయండి",
            "steps": {
                "step_1": "రెపో కోసం QR కోడ్ ప్రదర్శించబడిన తర్వాత, QR స్కానర్ అనువర్తనాన్ని ఉపయోగించి QR కోడ్‌ను స్కాన్ చేయండి.",
                "step_2": "లింక్‌ను నొక్కండి. ఆప్షన్ ఇచ్చినట్లయితే, ఎఫ్-డ్రాయిడ్ ఉపయోగించి లింక్‌ను తెరవండి. అప్పుడు ప్రాంప్ట్లను అనుసరించండి. ఇది పనిచేస్తే, మీరు పూర్తి చేసారు! కాకపోతే, తదుపరి దశకు వెళ్లండి.",
                "step_3": "F-Droid తో లింక్‌ను తెరవడానికి మీకు ఎంపిక రాకపోతే, QR స్కానర్ అనువర్తనాన్ని మూసివేసి, F-Droid అనువర్తనాన్ని తెరవండి.",
                "step_4": "F-Droid లోపల, 'సెట్టింగులు' నొక్కండి. 'నా అనువర్తనాలు' కింద 'రిపోజిటరీలు' ఎంచుకోండి.",
                "step_5": "రిపోజిటరీస్ స్క్రీన్‌లో, ఎగువ మూలలో ఉన్న '' చిహ్నాన్ని నొక్కండి.",
                "step_6": "రెపో చిరునామా స్వయంచాలకంగా ఉంటుంది. 'ప్రారంభించు' నొక్కండి. గమనిక: రెపో ఎఫ్-డ్రాయిడ్ రిపోజిటరీలలో సేవ్ చేయబడుతుంది, కానీ మీరు మానవీయంగా ఎంచుకుని, ఇన్‌స్టాల్ చేసే వరకు అనువర్తనాలు ఇన్‌స్టాల్ చేయబడవు."
            },
            "title": "మరొక పరికరం నుండి QR కోడ్‌ను స్కాన్ చేయండి"
        },
        "title": "ఎఫ్-డ్రాయిడ్‌కు రెపోను ఎలా జోడించాలి"
    },
    "create_repo": {
        "customize_repo": {
            "description": "మీ లక్ష్య ప్రేక్షకులకు అర్థమయ్యేలా మీరు అనువర్తనం మరియు ఫైల్ సారాంశాలను సవరించగలరు. మీరు దేశాన్ని నిర్దిష్టంగా చేసే భాషను సవరించవచ్చు. సమావేశాలు మరియు శిక్షణలకు ముందు హాజరైనవారికి రెపోను సజావుగా పంచుకోండి.",
            "steps": {
                "step_1": "దాని వివరాలను తెరవడానికి అంశంపై క్లిక్ చేయండి.",
                "step_2": "'సవరించు' క్లిక్ చేయండి.",
                "step_3": "మీ లక్ష్య ప్రేక్షకులకు సరిపోయేలా కంటెంట్‌ను అనుకూలీకరించండి. గమనిక: మీరు చేసిన మార్పులు మీ రెపోకు మాత్రమే చేయబడతాయి. అవి అసలు మూలం కోసం నవీకరించబడవు. మీది కాని కంటెంట్ కోసం సమాచారాన్ని అనుకూలీకరించేటప్పుడు దయచేసి గౌరవాన్ని ఉపయోగించండి.",
                "step_4": "మీ మార్పులన్నీ స్వయంచాలకంగా సేవ్ చేయబడ్డాయి."
            },
            "title": "మీ రెపోను అనుకూలీకరించండి"
        },
        "download_and_install": {
            "steps": {
                "step_1": "మీ డెస్క్‌టాప్ కంప్యూటర్‌కు రెపోమేకర్ వెబ్ అనువర్తనాన్ని డౌన్‌లోడ్ చేసి, ఇన్‌స్టాల్ చేయండి. దీన్ని ఎలా చేయాలో మరింత సమాచారం కోసం <a href=\"https://gitlab.com/fdroid/repomaker/blob/master/README.md#installation\"> ఇన్‌స్టాలేషన్ గైడ్ </a> చూడండి.",
                "step_2": "రెపోమేకర్ వెబ్ అనువర్తనాన్ని ప్రారంభించండి. ప్రారంభించడానికి సైన్ అప్ చేయండి లేదా లాగిన్ అవ్వండి.",
                "step_3": "క్రొత్త రెపోని సృష్టించండి మరియు దానికి అనుగుణంగా పేరు పెట్టండి.",
                "step_4": "గ్యాలరీ మరియు అందుబాటులో ఉన్న రిపోజిటరీల నుండి అనువర్తనాలను జోడించడానికి ఎంచుకోండి లేదా మీ స్వంత ఫైల్‌లను అప్‌లోడ్ చేయండి. తక్షణమే అందుబాటులో ఉన్న కంటెంట్ నుండి ఎంచుకోవడానికి 'గ్యాలరీ నుండి జోడించు' బటన్ క్లిక్ చేయండి.",
                "step_5": "మీరు జోడించదలిచిన అంశాల పక్కన ఉన్న 'జోడించు' బటన్‌ను క్లిక్ చేయండి. మీరు పూర్తి చేసిన తర్వాత, మీ రెపోకు తిరిగి రావడానికి 'వెనుక' బాణం క్లిక్ చేయండి.",
                "step_6": "మీ అనువర్తనాలు మీ రెపో కంటెంట్ వీక్షణలో ప్రదర్శించబడతాయి."
            },
            "title": "సృష్టించడం ప్రారంభించడానికి రెపోమేకర్‌ను డౌన్‌లోడ్ చేసి, ఇన్‌స్టాల్ చేయండి"
        },
        "intro": "మీరు వెతుకుతున్నది కనుగొనలేదా? మీ స్వంత అనుకూలీకరించిన అనువర్తనాలు మరియు ఫైల్‌ల సేకరణను సృష్టించడానికి మీ కంప్యూటర్‌లో రెపోమేకర్ వెబ్ అనువర్తనాన్ని డౌన్‌లోడ్ చేయండి.",
        "overview": {
            "summary": "మీ స్వంత అనుకూలీకరించిన అనువర్తనాల రిపోజిటరీని సృష్టించండి. కంటెంట్‌ను పంపిణీ చేయడానికి ఎఫ్-డ్రాయిడ్‌ను ఉపయోగించండి. % U2019 విశ్వసనీయ ఇంటర్నెట్ కనెక్షన్ లేనప్పుడు శిక్షణలో పాల్గొనే వారితో వనరులు మరియు అనువర్తనాల సేకరణను సులభంగా పంచుకోవడానికి శిక్షకులు రెపోలను ఉపయోగిస్తారు. డెవలపర్లు తమ అనువర్తనాలను సముచిత ప్రేక్షకులకు పంపిణీ చేయడానికి రెపోలను ఉపయోగిస్తారు.",
            "title": "మీ స్వంత అనువర్తనాలు మరియు ఫైల్‌లను జోడించండి."
        },
        "related_tutorial": "మీకు కూడా ఆసక్తి ఉండవచ్చు: <a href='../add-repo/'> ఎఫ్-డ్రాయిడ్‌కు రెపోను ఎలా జోడించాలి </a>",
        "share_repo": {
            "steps": {
                "step_1": "మీరు ఓపెన్‌గా భాగస్వామ్యం చేయాలనుకుంటున్న రెపోతో, మెనులోని 'భాగస్వామ్యం' క్లిక్ చేయండి. గమనిక: భాగస్వామ్యం చేయడానికి ముందు మీ రెపోను నిల్వ చేయడానికి మీరు ఒక స్థలాన్ని సెటప్ చేయాలి. దీన్ని ఎలా చేయాలో సూచనలు దశ 2 లో ఉన్నాయి.",
                "step_2": "మీ రెపోను ప్రచురించడానికి మరియు భాగస్వామ్యం చేయడానికి ముందు నిల్వను సెటప్ చేయమని మీరు ప్రాంప్ట్ చేయబడతారు. మీరు ఈ పేజీని చూడకపోతే, 4 వ దశకు కొనసాగండి.",
                "step_3": "మీ అవసరాలకు సరిపోయే నిల్వ ఎంపికను ఎంచుకోండి. మీరు నిల్వ చేసిన తర్వాత, మీరు భాగస్వామ్యం చేయడానికి సిద్ధంగా ఉన్నారు! 'భాగస్వామ్యం' కు తిరిగి వెళ్ళు.",
                "step_4": "లింక్‌ను కాపీ చేసి, ఇమెయిల్ లేదా టెక్స్ట్ ద్వారా నేరుగా ప్రజలకు పంపాలని ఎంచుకోండి లేదా ఫేస్‌బుక్ లేదా ట్విట్టర్‌లో మీ రెపోను పంచుకోండి. వ్యక్తులు మీ రెపోకు లింక్‌ను తెరిచినప్పుడు, రెపోలోని అనువర్తనాలను ప్రాప్యత చేయడానికి వారు దీన్ని Android పరికరానికి జోడించాలి. మరింత సమాచారం కోసం <a href='../add-repo/'> ఎఫ్-డ్రాయిడ్‌కు రెపోను ఎలా జోడించాలో </a> చూడండి.",
                "step_5": "'వ్యూ రెపో' ఎంపిక మీరు ఇప్పుడే ప్రచురించిన లేదా భాగస్వామ్యం చేసిన వాటిని చూడటానికి అనుమతిస్తుంది."
            },
            "title": "మీ రెపోను అనుకూలీకరించండి"
        },
        "title": "రెపోను ఎలా సృష్టించాలి",
        "update_repo": {
            "steps": {
                "step_1": "మీరు గ్యాలరీ నుండి అనువర్తనాలను జోడిస్తే, మూలం క్రొత్త సంస్కరణలను జోడించినప్పుడు అవి స్వయంచాలకంగా నవీకరించబడతాయి. మీరు అప్‌లోడ్ చేసిన ఫైల్‌ల కోసం, మీరు రెపో వీక్షణలో నవీకరించబడిన సంస్కరణలను లాగండి మరియు వదలవచ్చు.",
                "step_2": "మీరు గ్యాలరీ నుండి అనువర్తనాలను జోడిస్తే, మూలం క్రొత్త సంస్కరణలను జోడించినప్పుడు అవి స్వయంచాలకంగా నవీకరించబడతాయి. మీరు అప్‌లోడ్ చేసిన ఫైల్‌ల కోసం, మీరు రెపో వీక్షణలో నవీకరించబడిన సంస్కరణలను లాగండి మరియు వదలవచ్చు.",
                "step_3": "సంస్కరణలకు క్రిందికి స్క్రోల్ చేయండి. అప్పుడు, 'సంస్కరణ చరిత్ర' విభాగం క్రింద క్రొత్త సంస్కరణను జోడించండి.",
                "step_4": "అప్పుడు, 'సంస్కరణ చరిత్ర' విభాగం క్రింద క్రొత్త సంస్కరణను జోడించండి."
            },
            "title": "మీ రెపోను నవీకరించండి"
        }
    },
    "misc": {
        "option_x_description": "ఎంపిక [సంఖ్య]: [వివరణ]",
        "overview": {
            "summary": "F-Droid అనేది Android కోసం స్వతంత్ర, కమ్యూనిటీ-ఆధారిత అనువర్తన స్టోర్, ఇది పూర్తిగా ఉచిత మరియు ఓపెన్ సోర్స్ సాఫ్ట్‌వేర్. ఎఫ్-డ్రాయిడ్‌లో మీరు 1,200 ఓపెన్ సోర్స్ అనువర్తనాలను బ్రౌజ్ చేయవచ్చు, సృష్టించిన రిపోజిటరీల నుండి అనువర్తనాలను శోధించవచ్చు మరియు ఇన్‌స్టాల్ చేయవచ్చు లేదా మీ స్వంత రిపోజిటరీని సృష్టించవచ్చు. అనువర్తనాన్ని డౌన్‌లోడ్ చేయడానికి మరియు ప్రారంభించడానికి మీ Android పరికరంలో f-droid.org ని తెరవండి!",
            "title": "ఎఫ్-డ్రాయిడ్‌తో మీరు ఏమి చేయవచ్చు",
            "tutorial_x_title": "ట్యుటోరియల్ [సంఖ్య]: [శీర్షిక]"
        },
        "step_x": "దశ [సంఖ్య]",
        "step_x_description": "దశ [సంఖ్య]: [వివరణ]"
    },
    "swap": {
        "all_devices_need_fdroid": "అన్ని పరికరాలకు ప్రారంభానికి ముందు ఎఫ్-డ్రాయిడ్ డౌన్‌లోడ్ చేసి ఇన్‌స్టాల్ చేయాలి. అన్ని పరికరాలు క్రింది దశలను అనుసరించాలి.",
        "intro": "ఇంటర్నెట్ లేదా? ఏమి ఇబ్బంది లేదు. మీకు సమీపంలో ఉన్న వ్యక్తుల నుండి అనువర్తనాలను డౌన్‌లోడ్ చేయండి.",
        "overview": {
            "summary": "ఇంటర్నెట్ లేదా? ఏమి ఇబ్బంది లేదు. సమీపంలోని ఎఫ్-డ్రాయిడ్ మీకు ఒకే గదిలోని వ్యక్తులకు కంటెంట్ పంపే మరియు స్వీకరించే సామర్థ్యాన్ని ఇస్తుంది.",
            "title": "అనువర్తనాలను ఆఫ్‌లైన్‌లో పంపండి మరియు స్వీకరించండి."
        },
        "related_tutorial": "మీకు కూడా ఆసక్తి ఉండవచ్చు: <a href=\"../create-repo/\"> రెపోను ఎలా సృష్టించాలి </a>",
        "step_1": "ఎఫ్-డ్రాయిడ్ తెరవండి. మీ స్క్రీన్ దిగువన ఉన్న మెను నుండి 'సమీపంలో' నొక్కండి.",
        "step_10": "మీ ఇన్‌స్టాల్ చేసిన అనువర్తనాలను ప్రాప్యత చేయడానికి, F-Droid సెట్టింగ్‌లను తెరిచి, 'నా అనువర్తనాలు' క్రింద 'ఇన్‌స్టాల్ చేసిన అనువర్తనాలను నిర్వహించు' ఎంచుకోండి.",
        "step_2": "అనుకూల పరికరాల కోసం శోధించడానికి 'నా దగ్గర ఉన్న వ్యక్తులను కనుగొనండి' నొక్కండి.",
        "step_3": "సమీపంలోని వ్యక్తులు కనుగొనబడిన తర్వాత, మీరు మరియు పరిచయం ఇద్దరూ ఒకరినొకరు ఎంచుకోవాలి.",
        "step_4": "కనెక్ట్ అయిన తర్వాత, మీరు మీ పరిచయంతో భాగస్వామ్యం చేయాలనుకుంటున్న అనువర్తనాలను ఎంచుకోండి.",
        "step_5": "'% U2014>' బటన్ నొక్కండి.",
        "step_6": "కనెక్ట్ కావాలన్న అభ్యర్థనను ధృవీకరించమని ఒక వ్యక్తి ప్రాంప్ట్ చేయబడతారు.",
        "step_7": "మీరు ఇన్‌స్టాల్ చేయదలిచిన అనువర్తనాల పక్కన ఉన్న 'ఇన్‌స్టాల్' బటన్‌ను నొక్కండి.",
        "step_8": "మరోసారి 'ఇన్‌స్టాల్ చేయి' నొక్కండి. అప్పుడు, సంస్థాపనా విధానాన్ని పూర్తి చేయమని Android ప్రాంప్ట్‌లను అనుసరించండి.",
        "step_9": "ఇన్‌స్టాల్‌లు పూర్తయిన తర్వాత, మీ అనువర్తనాలు మీ Android అనువర్తన గ్యాలరీలో మరియు ఇన్‌స్టాల్ చేసిన అనువర్తనాల క్రింద మీ F-Droid అనువర్తనంలో అందుబాటులో ఉంటాయి.",
        "title": "అనువర్తనాలను ఆఫ్‌లైన్‌లో ఎలా పంపాలి మరియు స్వీకరించాలి"
    }
}
